%YAML 1.1
%TAG !u! tag:unity3d.com,2011:
--- !u!1001 &2255691318793112417
PrefabInstance:
  m_ObjectHideFlags: 0
  serializedVersion: 2
  m_Modification:
    m_TransformParent: {fileID: 0}
    m_Modifications:
    - target: {fileID: 1125710871076735000, guid: cb466a6823b1a4e428cef0ae81d8ce4b,
        type: 3}
      propertyPath: m_Name
      value: Stopper Box Blue Variant
      objectReference: {fileID: 0}
    - target: {fileID: 8400123634376062616, guid: cb466a6823b1a4e428cef0ae81d8ce4b,
        type: 3}
      propertyPath: m_LocalPosition.x
      value: 0
      objectReference: {fileID: 0}
    - target: {fileID: 8400123634376062616, guid: cb466a6823b1a4e428cef0ae81d8ce4b,
        type: 3}
      propertyPath: m_LocalPosition.y
      value: 0
      objectReference: {fileID: 0}
    - target: {fileID: 8400123634376062616, guid: cb466a6823b1a4e428cef0ae81d8ce4b,
        type: 3}
      propertyPath: m_LocalPosition.z
      value: 0
      objectReference: {fileID: 0}
    - target: {fileID: 8400123634376062616, guid: cb466a6823b1a4e428cef0ae81d8ce4b,
        type: 3}
      propertyPath: m_LocalRotation.x
      value: 0
      objectReference: {fileID: 0}
    - target: {fileID: 8400123634376062616, guid: cb466a6823b1a4e428cef0ae81d8ce4b,
        type: 3}
      propertyPath: m_LocalRotation.y
      value: 0
      objectReference: {fileID: 0}
    - target: {fileID: 8400123634376062616, guid: cb466a6823b1a4e428cef0ae81d8ce4b,
        type: 3}
      propertyPath: m_LocalRotation.z
      value: 0
      objectReference: {fileID: 0}
    - target: {fileID: 8400123634376062616, guid: cb466a6823b1a4e428cef0ae81d8ce4b,
        type: 3}
      propertyPath: m_LocalRotation.w
      value: 1
      objectReference: {fileID: 0}
    - target: {fileID: 8400123634376062616, guid: cb466a6823b1a4e428cef0ae81d8ce4b,
        type: 3}
      propertyPath: m_RootOrder
      value: 0
      objectReference: {fileID: 0}
    - target: {fileID: 8400123634376062616, guid: cb466a6823b1a4e428cef0ae81d8ce4b,
        type: 3}
      propertyPath: m_LocalEulerAnglesHint.x
      value: 0
      objectReference: {fileID: 0}
    - target: {fileID: 8400123634376062616, guid: cb466a6823b1a4e428cef0ae81d8ce4b,
        type: 3}
      propertyPath: m_LocalEulerAnglesHint.y
      value: 0
      objectReference: {fileID: 0}
    - target: {fileID: 8400123634376062616, guid: cb466a6823b1a4e428cef0ae81d8ce4b,
        type: 3}
      propertyPath: m_LocalEulerAnglesHint.z
      value: 0
      objectReference: {fileID: 0}
    - target: {fileID: 8213219586508455359, guid: cb466a6823b1a4e428cef0ae81d8ce4b,
        type: 3}
      propertyPath: m_Materials.Array.data[0]
      value: 
      objectReference: {fileID: 2100000, guid: fa92628a75f7c294ab41842ac530c140, type: 2}
    - target: {fileID: 5219353164930379825, guid: cb466a6823b1a4e428cef0ae81d8ce4b,
        type: 3}
      propertyPath: m_Materials.Array.data[0]
      value: 
      objectReference: {fileID: 2100000, guid: 769f0129d1e438140a203a5121d7dbf0, type: 2}
    - target: {fileID: 5219353164930379829, guid: cb466a6823b1a4e428cef0ae81d8ce4b,
        type: 3}
      propertyPath: m_Materials.Array.data[0]
      value: 
      objectReference: {fileID: 2100000, guid: 769f0129d1e438140a203a5121d7dbf0, type: 2}
    - target: {fileID: 5219353164930379831, guid: cb466a6823b1a4e428cef0ae81d8ce4b,
        type: 3}
      propertyPath: m_Materials.Array.data[0]
      value: 
      objectReference: {fileID: 2100000, guid: 4d94ab5bfdba58b4aaf65f07c2d41ec6, type: 2}
    m_RemovedComponents: []
  m_SourcePrefab: {fileID: 100100000, guid: cb466a6823b1a4e428cef0ae81d8ce4b, type: 3}
