%YAML 1.1
%TAG !u! tag:unity3d.com,2011:
--- !u!114 &11400000
MonoBehaviour:
  m_ObjectHideFlags: 0
  m_CorrespondingSourceObject: {fileID: 0}
  m_PrefabInternal: {fileID: 0}
  m_GameObject: {fileID: 0}
  m_Enabled: 1
  m_EditorHideFlags: 0
  m_Script: {fileID: 11500000, guid: 7d044a880681b784f82d3c0948f7dc8a, type: 3}
  m_Name: FortBlock
  m_EditorClassIdentifier: 
  MapName: FortBlock
  MaxPlayers: 0
  ExclusiveGameMode: 
