%YAML 1.1
%TAG !u! tag:unity3d.com,2011:
--- !u!114 &11400000
MonoBehaviour:
  m_ObjectHideFlags: 0
  m_CorrespondingSourceObject: {fileID: 0}
  m_PrefabInstance: {fileID: 0}
  m_PrefabAsset: {fileID: 0}
  m_GameObject: {fileID: 0}
  m_Enabled: 1
  m_EditorHideFlags: 0
  m_Script: {fileID: 11500000, guid: 77d802af21ba02d45809526813520091, type: 3}
  m_Name: IonBeam
  m_EditorClassIdentifier: 
  Name: IonBeam
  Rarity: 2
  Count: 1
  ItemType: 1
  ItemPrefab: {fileID: 540, guid: 0fff704dd3d8724469268f864374a5f8, type: 3}
  InventoryTexture: {fileID: 21300000, guid: 93f5d256aa561204eb5055ec10541980, type: 3}
  ShockwavePrefab: {fileID: 0}
  ShieldPrefab: {fileID: 0}
  PreviewPrefab: {fileID: 0}
  EmissiveMaterial: {fileID: 2100000, guid: 8756763030079654b9fa2bccabf7d66f, type: 2}
