%YAML 1.1
%TAG !u! tag:unity3d.com,2011:
--- !u!114 &11400000
MonoBehaviour:
  m_ObjectHideFlags: 0
  m_CorrespondingSourceObject: {fileID: 0}
  m_PrefabInstance: {fileID: 0}
  m_PrefabAsset: {fileID: 0}
  m_GameObject: {fileID: 0}
  m_Enabled: 1
  m_EditorHideFlags: 0
  m_Script: {fileID: 11500000, guid: 3a9c6cfc8b4fa4e499b5ab2654f34c51, type: 3}
  m_Name: DiskCollision
  m_EditorClassIdentifier: 
  ItemName: 0
  HitsPlayer: 1
  Disk: 0
  Rocket: 1
  Mine: 1
  Guile: 1
  IonBeamLaser: 0
  GoldDisk: 0
  Laser: 1
  Totem: 1
  ItemDestroyer: 1
