%YAML 1.1
%TAG !u! tag:unity3d.com,2011:
--- !u!21 &2100000
Material:
  serializedVersion: 6
  m_ObjectHideFlags: 0
  m_CorrespondingSourceObject: {fileID: 0}
  m_PrefabInstance: {fileID: 0}
  m_PrefabAsset: {fileID: 0}
  m_Name: ion-beam_ground-burned_mat
  m_Shader: {fileID: 4800000, guid: 0621957743351eb45b1c0bf2ccf009fa, type: 3}
  m_ShaderKeywords: 
  m_LightmapFlags: 5
  m_EnableInstancingVariants: 0
  m_DoubleSidedGI: 0
  m_CustomRenderQueue: -1
  stringTagMap: {}
  disabledShaderPasses: []
  m_SavedProperties:
    serializedVersion: 3
    m_TexEnvs:
    - _Burn:
        m_Texture: {fileID: 2800000, guid: 18438efb2767da14aaed1c4a4778dd7f, type: 3}
        m_Scale: {x: 1, y: 1}
        m_Offset: {x: 0, y: 0}
    - _Burned:
        m_Texture: {fileID: 2800000, guid: 18438efb2767da14aaed1c4a4778dd7f, type: 3}
        m_Scale: {x: 1, y: 1}
        m_Offset: {x: 0, y: 0}
    - _BurnedTexture:
        m_Texture: {fileID: 2800000, guid: 30d5ddc4e0436ed41a2ac685e775b14a, type: 3}
        m_Scale: {x: 1, y: 1}
        m_Offset: {x: 0, y: 0}
    - _FalloffTex:
        m_Texture: {fileID: 2800000, guid: 9c5aef69f1829e3409a9e79779344447, type: 3}
        m_Scale: {x: 1, y: 1}
        m_Offset: {x: 0, y: 0}
    - _FalloffTextur:
        m_Texture: {fileID: 2800000, guid: 9c5aef69f1829e3409a9e79779344447, type: 3}
        m_Scale: {x: 1, y: 1}
        m_Offset: {x: 0, y: 0}
    - _FalloffTexture:
        m_Texture: {fileID: 2800000, guid: c0e9dfa6bb415e742a31d1da3e1e9178, type: 3}
        m_Scale: {x: 1, y: 1}
        m_Offset: {x: 0, y: 0}
    - _LightTex:
        m_Texture: {fileID: 2800000, guid: 31cafcc7840963f43ab15238af6cc7eb, type: 3}
        m_Scale: {x: 1, y: 1}
        m_Offset: {x: 0, y: 0}
    - _ShadowTex:
        m_Texture: {fileID: 2800000, guid: 18438efb2767da14aaed1c4a4778dd7f, type: 3}
        m_Scale: {x: 1, y: 1}
        m_Offset: {x: 0, y: 0}
    m_Floats:
    - _BurnedDispertion: 10
    - _Float0: 2.61
    - _Float1: 10
    - _Float2: 1.08
    - _Opa: 1
    - _Opaci: 1
    - _Opacity: 0
    m_Colors:
    - _Burn: {r: 2.9960785, g: 1.2569294, b: 0.627451, a: 1}
    - _BurnedColor: {r: 3.951618, g: 2.2654107, b: 1.2861398, a: 1}
    - _Color: {r: 0.3956924, g: 0.41150466, b: 0.49056602, a: 0.57254905}
    - _Color0: {r: 0.7647059, g: 0.7131563, b: 0.7019608, a: 1}
    - _Color1: {r: 0.49056602, g: 0.49056602, b: 0.49056602, a: 0}
    - _ColorFire: {r: 2.9960785, g: 1.2569294, b: 0.627451, a: 1}
